%!PS-Adobe-3.0 EPSF-3.0
%%Creator: cairo 1.15.10 (http://cairographics.org)
%%CreationDate: Sat Mar 31 00:06:48 2018
%%Pages: 1
%%DocumentData: Clean7Bit
%%LanguageLevel: 2
%%BoundingBox: 0 1 117 102
%%EndComments
%%BeginProlog
50 dict begin
/q { gsave } bind def
/Q { grestore } bind def
/cm { 6 array astore concat } bind def
/w { setlinewidth } bind def
/J { setlinecap } bind def
/j { setlinejoin } bind def
/M { setmiterlimit } bind def
/d { setdash } bind def
/m { moveto } bind def
/l { lineto } bind def
/c { curveto } bind def
/h { closepath } bind def
/re { exch dup neg 3 1 roll 5 3 roll moveto 0 rlineto
      0 exch rlineto 0 rlineto closepath } bind def
/S { stroke } bind def
/f { fill } bind def
/f* { eofill } bind def
/n { newpath } bind def
/W { clip } bind def
/W* { eoclip } bind def
/BT { } bind def
/ET { } bind def
/BDC { mark 3 1 roll /BDC pdfmark } bind def
/EMC { mark /EMC pdfmark } bind def
/cairo_store_point { /cairo_point_y exch def /cairo_point_x exch def } def
/Tj { show currentpoint cairo_store_point } bind def
/TJ {
  {
    dup
    type /stringtype eq
    { show } { -0.001 mul 0 cairo_font_matrix dtransform rmoveto } ifelse
  } forall
  currentpoint cairo_store_point
} bind def
/cairo_selectfont { cairo_font_matrix aload pop pop pop 0 0 6 array astore
    cairo_font exch selectfont cairo_point_x cairo_point_y moveto } bind def
/Tf { pop /cairo_font exch def /cairo_font_matrix where
      { pop cairo_selectfont } if } bind def
/Td { matrix translate cairo_font_matrix matrix concatmatrix dup
      /cairo_font_matrix exch def dup 4 get exch 5 get cairo_store_point
      /cairo_font where { pop cairo_selectfont } if } bind def
/Tm { 2 copy 8 2 roll 6 array astore /cairo_font_matrix exch def
      cairo_store_point /cairo_font where { pop cairo_selectfont } if } bind def
/g { setgray } bind def
/rg { setrgbcolor } bind def
/d1 { setcachedevice } bind def
/cairo_data_source {
  CairoDataIndex CairoData length lt
    { CairoData CairoDataIndex get /CairoDataIndex CairoDataIndex 1 add def }
    { () } ifelse
} def
/cairo_flush_ascii85_file { cairo_ascii85_file status { cairo_ascii85_file flushfile } if } def
/cairo_image { image cairo_flush_ascii85_file } def
/cairo_imagemask { imagemask cairo_flush_ascii85_file } def
%%EndProlog
%%BeginSetup
%%EndSetup
%%Page: 1 1
%%BeginPageSetup
%%PageBoundingBox: 0 1 117 102
%%EndPageSetup
q 0 1 117 101 rectclip
1 0 0 -1 0 102 cm q
Q q
q
0 0 117 102 re W n
[ 1 0 0 1 0 0 ] concat
  q
0.298039 0.337255 0.415686 rg
108.98 21.625 m 103.766 15.219 96.68 10.156 87.73 6.441 c 78.781 2.727 
69.004 0.867 58.402 0.867 c 50.492 0.867 42.93 1.965 35.719 4.16 c 28.504
 6.352 22.293 9.32 17.078 13.055 c 11.863 16.793 7.715 21.234 4.629 26.383
 c 1.543 31.531 0 36.934 0 42.582 c 0 49.098 1.965 55.207 5.898 60.898 c
 9.832 66.59 15.207 71.371 22.031 75.238 c 21.551 76.973 20.988 78.625 20.336
 80.191 c 19.684 81.754 19.098 83.035 18.574 84.035 c 18.055 85.035 17.348
 86.145 16.457 87.359 c 15.566 88.578 14.895 89.434 14.438 89.934 c 13.98
 90.434 13.23 91.262 12.188 92.41 c 11.145 93.562 10.473 94.312 10.168 94.66
 c 10.125 94.68 9.949 94.879 9.645 95.246 c 9.344 95.617 9.191 95.801 9.191
 95.801 c 8.801 96.387 l 8.582 96.711 8.484 96.918 8.504 97.004 c 8.527 
97.09 8.484 97.309 8.375 97.656 c 8.266 98.004 8.277 98.266 8.406 98.438
 c 8.406 98.504 l 8.582 99.285 8.961 99.914 9.547 100.395 c 10.137 100.871
 10.797 101.066 11.535 100.977 c 14.363 100.629 16.84 100.156 18.969 99.547
 c 30.352 96.633 40.348 91.375 48.949 83.77 c 52.207 84.121 55.359 84.293
 58.398 84.293 c 69.004 84.293 78.781 82.434 87.73 78.719 c 96.68 75.004
 103.766 69.941 108.977 63.535 c 114.191 57.129 116.801 50.141 116.801 42.582
 c 116.801 35.02 114.191 28.035 108.98 21.625 c h
108.98 21.625 m f
  Q
Q
Q Q
showpage
%%Trailer
end
%%EOF
