%!PS-Adobe-3.0 EPSF-3.0
%%Creator: cairo 1.15.10 (http://cairographics.org)
%%CreationDate: Wed Feb 14 03:16:33 2018
%%Pages: 1
%%DocumentData: Clean7Bit
%%LanguageLevel: 2
%%BoundingBox: 0 1 92 93
%%EndComments
%%BeginProlog
50 dict begin
/q { gsave } bind def
/Q { grestore } bind def
/cm { 6 array astore concat } bind def
/w { setlinewidth } bind def
/J { setlinecap } bind def
/j { setlinejoin } bind def
/M { setmiterlimit } bind def
/d { setdash } bind def
/m { moveto } bind def
/l { lineto } bind def
/c { curveto } bind def
/h { closepath } bind def
/re { exch dup neg 3 1 roll 5 3 roll moveto 0 rlineto
      0 exch rlineto 0 rlineto closepath } bind def
/S { stroke } bind def
/f { fill } bind def
/f* { eofill } bind def
/n { newpath } bind def
/W { clip } bind def
/W* { eoclip } bind def
/BT { } bind def
/ET { } bind def
/BDC { mark 3 1 roll /BDC pdfmark } bind def
/EMC { mark /EMC pdfmark } bind def
/cairo_store_point { /cairo_point_y exch def /cairo_point_x exch def } def
/Tj { show currentpoint cairo_store_point } bind def
/TJ {
  {
    dup
    type /stringtype eq
    { show } { -0.001 mul 0 cairo_font_matrix dtransform rmoveto } ifelse
  } forall
  currentpoint cairo_store_point
} bind def
/cairo_selectfont { cairo_font_matrix aload pop pop pop 0 0 6 array astore
    cairo_font exch selectfont cairo_point_x cairo_point_y moveto } bind def
/Tf { pop /cairo_font exch def /cairo_font_matrix where
      { pop cairo_selectfont } if } bind def
/Td { matrix translate cairo_font_matrix matrix concatmatrix dup
      /cairo_font_matrix exch def dup 4 get exch 5 get cairo_store_point
      /cairo_font where { pop cairo_selectfont } if } bind def
/Tm { 2 copy 8 2 roll 6 array astore /cairo_font_matrix exch def
      cairo_store_point /cairo_font where { pop cairo_selectfont } if } bind def
/g { setgray } bind def
/rg { setrgbcolor } bind def
/d1 { setcachedevice } bind def
/cairo_data_source {
  CairoDataIndex CairoData length lt
    { CairoData CairoDataIndex get /CairoDataIndex CairoDataIndex 1 add def }
    { () } ifelse
} def
/cairo_flush_ascii85_file { cairo_ascii85_file status { cairo_ascii85_file flushfile } if } def
/cairo_image { image cairo_flush_ascii85_file } def
/cairo_imagemask { imagemask cairo_flush_ascii85_file } def
%%EndProlog
%%BeginSetup
%%EndSetup
%%Page: 1 1
%%BeginPageSetup
%%PageBoundingBox: 0 1 92 93
%%EndPageSetup
q 0 1 92 92 rectclip
1 0 0 -1 0 93 cm q
0.298039 0.337255 0.415686 rg
90.156 41.855 m 50.035 1.738 l 47.727 -0.574 43.98 -0.574 41.668 1.738 
c 33.336 10.07 l 43.902 20.637 l 46.359 19.809 49.176 20.363 51.133 22.32
 c 53.102 24.289 53.652 27.133 52.805 29.598 c 62.988 39.781 l 65.453 38.93
 68.297 39.48 70.266 41.453 c 73.016 44.199 73.016 48.656 70.266 51.41 c
 67.512 54.16 63.055 54.16 60.305 51.41 c 58.234 49.34 57.723 46.301 58.773
 43.75 c 49.273 34.25 l 49.273 59.25 l 49.941 59.582 50.574 60.023 51.133
 60.578 c 53.883 63.328 53.883 67.785 51.133 70.539 c 48.383 73.289 43.926
 73.289 41.176 70.539 c 38.426 67.785 38.426 63.328 41.176 60.578 c 41.855
 59.902 42.645 59.387 43.484 59.043 c 43.484 33.816 l 42.645 33.473 41.859
 32.961 41.176 32.277 c 39.094 30.195 38.594 27.141 39.66 24.582 c 29.242
 14.16 l 1.734 41.668 l -0.578 43.98 -0.578 47.73 1.734 50.039 c 41.855 
90.156 l 44.164 92.469 47.91 92.469 50.223 90.156 c 90.156 50.227 l 92.465
 47.914 92.465 44.164 90.156 41.855 c f
Q Q
showpage
%%Trailer
end
%%EOF
